…
### Simple usage

Just add WorldOceanAtlasTools like any other Julia package, and then you can grab the data with, e.g.,

```julia
julia> WorldOceanAtlasTools.observations("PO₄")
Registering World Ocean Atlas data with DataDeps
┌ Warning: You are about to use World Ocean Atlas data.
│ Please cite the following corresponding reference(s):
│ Garcia, H. E., K. Weathers, C. R. Paver, I. Smolyar, T. P. Boyer, R. A. Locarnini, M. M. Zweng, A. V. Mishonov, O. K. Baranova, D. Seidov, and J. R. Reagan, 2018. World Ocean Atlas 2018, Volume 4: Dissolved Inorganic Nutrients (phosphate, nitrate and nitrate+nitrite, silicate). A. Mishonov Technical Ed.; in preparation.)
└ @ WorldOceanAtlasTools ~/.julia/dev/WorldOceanAtlasTools/src/functions.jl:218
1312523×4 DataFrame
     Row │ lat      lon      depth      PO₄
         │ Float32  Float32  Quantity…  Quantity…
─────────┼────────────────────────────────────────────────
       1 │   -77.5   -178.5      0.0 m  1.35075 μmol kg⁻¹
       2 │   -77.5   -177.5      0.0 m  1.28211 μmol kg⁻¹
       3 │   -77.5   -176.5      0.0 m  1.37447 μmol kg⁻¹
    ⋮    │    ⋮        ⋮         ⋮              ⋮
 1312521 │    52.5   -165.5   5500.0 m  2.4566 μmol kg⁻¹
 1312522 │    52.5   -163.5   5500.0 m  2.42341 μmol kg⁻¹
 1312523 │    53.5   -158.5   5500.0 m  2.45224 μmol kg⁻¹
                                      1312517 rows omitted
```
…
