…
To get a list of observations as a table, simply call `observations(tracer)`:

```julia
julia> Pobs = WorldOceanAtlasTools.observations("PO4")
Registering World Ocean Atlas data with DataDeps
┌ Warning: You are about to use World Ocean Atlas data 18.
│
│ Please cite the following corresponding reference(s):
│ Garcia et al. (2018), World Ocean Atlas 2018, Volume 4: Dissolved Inorganic Nutrients (phosphate, nitrate and nitrate+nitrite, silicate). A. Mishonov Technical Ed.; in preparation.)
└ @ WorldOceanAtlasTools ~/.julia/dev/WorldOceanAtlasTools/src/functions.jl:223
┌ Warning: Over-writing registration of the datadep
│   name = "WOA18_Annual_phosphate_360x180"
└ @ DataDeps ~/.julia/packages/DataDeps/ooWXe/src/registration.jl:15
1312523×4 DataFrame
     Row │ lat      lon      depth      PO4
         │ Float32  Float32  Quantity…  Quantity…
─────────┼────────────────────────────────────────────────
       1 │   -77.5   -178.5      0.0 m  1.35075 μmol kg⁻¹
       2 │   -77.5   -177.5      0.0 m  1.28211 μmol kg⁻¹
    ⋮    │    ⋮        ⋮         ⋮              ⋮
 1312522 │    52.5   -163.5   5500.0 m  2.42341 μmol kg⁻¹
 1312523 │    53.5   -158.5   5500.0 m  2.45224 μmol kg⁻¹
                                      1312519 rows omitted
```
…
